archermelt0000 = 0 0 64 64
archermelt0001 = 65 0 64 64
archermelt0002 = 130 0 64 64
archermelt0003 = 0 65 64 64
archermelt0004 = 65 65 64 64
archermelt0005 = 0 130 64 64
archermelt0006 = 65 130 64 64
archermelt0007 = 130 65 64 64
archermelt0008 = 130 130 64 64
archermelt0009 = 195 0 64 64
archermelt0010 = 195 65 64 64
archermelt0011 = 260 0 64 64
archermelt0012 = 195 130 64 64
archermelt0013 = 260 65 64 64
archermelt0014 = 325 0 64 64
archermelt0015 = 325 65 64 64
archermelt0016 = 260 130 64 64
archermelt0017 = 325 130 64 64
archermelt0018 = 0 195 64 64
archermelt0019 = 65 195 64 64
archermelt0020 = 130 195 64 64
archermelt0021 = 195 195 64 64
archermelt0022 = 260 195 64 64