Deathmelt0000 = 0 0 128 128
Deathmelt0001 = 129 0 128 128
Deathmelt0002 = 258 0 128 128
Deathmelt0003 = 0 129 128 128
Deathmelt0004 = 129 129 128 128
Deathmelt0005 = 0 258 128 128
Deathmelt0006 = 129 258 128 128
Deathmelt0007 = 258 129 128 128
Deathmelt0008 = 258 258 128 128
Deathmelt0009 = 387 0 128 128
Deathmelt0010 = 387 129 128 128
Deathmelt0011 = 516 0 128 128
Deathmelt0012 = 387 258 128 128
Deathmelt0013 = 516 129 128 128
Deathmelt0014 = 645 0 128 128
Deathmelt0015 = 774 0 128 128
Deathmelt0016 = 645 129 128 128
Deathmelt0017 = 516 258 128 128
Deathmelt0018 = 645 258 128 128
Deathmelt0019 = 774 129 128 128
Deathmelt0020 = 774 258 128 128
Deathmelt0021 = 0 387 128 128