Tower spawn13 = 0 0 64 64
Tower spawn14 = 65 0 64 64
Tower spawn15 = 130 0 64 64
Tower spawn16 = 0 65 64 64
Tower spawn17 = 65 65 64 64
Tower spawn18 = 0 130 64 64
Tower spawn19 = 65 130 64 64
Tower spawn20 = 130 65 64 64
Tower spawn21 = 130 130 64 64
Tower spawn22 = 195 0 64 64
Tower spawn23 = 195 65 64 64
Tower spawn24 = 260 0 64 64
Tower spawn25 = 195 130 64 64