Pine 1 Death Animation0000 = 0 0 64 64
Pine 1 Death Animation0001 = 66 0 64 64
Pine 1 Death Animation0002 = 132 0 64 64
Pine 1 Death Animation0003 = 0 66 64 64
Pine 1 Death Animation0004 = 66 66 64 64
Pine 1 Death Animation0005 = 0 132 64 64
Pine 1 Death Animation0006 = 66 132 64 64
Pine 1 Death Animation0007 = 132 66 64 64
Pine 1 Death Animation0008 = 132 132 64 64
Pine 1 Death Animation0009 = 198 0 64 64