Oak2Death00 = 0 0 64 64
Oak2Death01 = 65 0 64 64
Oak2Death02 = 130 0 64 64
Oak2Death03 = 0 65 64 64
Oak2Death04 = 65 65 64 64
Oak2Death05 = 0 130 64 64
Oak2Death06 = 65 130 64 64
Oak2Death07 = 130 65 64 64
Oak2Death08 = 130 130 64 64
Oak2Death09 = 195 0 64 64
Oak2Death10 = 195 65 64 64
Oak2Death11 = 260 0 64 64
Oak2Death12 = 195 130 64 64
Oak2Death13 = 260 65 64 64
Oak2Death14 = 325 0 64 64
Oak2Death15 = 390 0 64 64
Oak2Death16 = 325 65 64 64
Oak2Death17 = 260 130 64 64
Oak2Death18 = 325 130 64 64