Ash 2 Death Animation0000 = 0 0 64 64
Ash 2 Death Animation0001 = 66 0 64 64
Ash 2 Death Animation0002 = 132 0 64 64
Ash 2 Death Animation0003 = 0 66 64 64
Ash 2 Death Animation0004 = 66 66 64 64
Ash 2 Death Animation0005 = 0 132 64 64
Ash 2 Death Animation0006 = 66 132 64 64
Ash 2 Death Animation0007 = 132 66 64 64
Ash 2 Death Animation0008 = 132 132 64 64
Ash 2 Death Animation0009 = 198 0 64 64
Ash 2 Death Animation0010 = 198 66 64 64
Ash 2 Death Animation0011 = 264 0 64 64
Ash 2 Death Animation0012 = 198 132 64 64
Ash 2 Death Animation0013 = 264 66 64 64
Ash 2 Death Animation0014 = 330 0 64 64
Ash 2 Death Animation0015 = 330 66 64 64
Ash 2 Death Animation0016 = 264 132 64 64
Ash 2 Death Animation0017 = 330 132 64 64
Ash 2 Death Animation0018 = 0 198 64 64
Ash 2 Death Animation0019 = 66 198 64 64
Ash 2 Death Animation0020 = 132 198 64 64
Ash 2 Death Animation0021 = 198 198 64 64
Ash 2 Death Animation0022 = 264 198 64 64