Flower Tree Death Animation0000 = 0 0 64 64
Flower Tree Death Animation0001 = 66 0 64 64
Flower Tree Death Animation0002 = 132 0 64 64
Flower Tree Death Animation0003 = 0 66 64 64
Flower Tree Death Animation0004 = 66 66 64 64
Flower Tree Death Animation0005 = 0 132 64 64
Flower Tree Death Animation0006 = 66 132 64 64
Flower Tree Death Animation0007 = 132 66 64 64
Flower Tree Death Animation0008 = 132 132 64 64
Flower Tree Death Animation0009 = 198 0 64 64