Life Tree Sprite v3 Finished00 = 0 0 128 90
Life Tree Sprite v3 Finished01 = 0 91 128 90
Life Tree Sprite v3 Finished02 = 129 0 128 90
Life Tree Sprite v3 Finished03 = 129 91 128 90
Life Tree Sprite v3 Finished04 = 258 0 128 90
Life Tree Sprite v3 Finished05 = 258 91 128 90
Life Tree Sprite v3 Finished06 = 0 182 128 90
Life Tree Sprite v3 Finished07 = 0 273 128 90
Life Tree Sprite v3 Finished08 = 129 182 128 90
Life Tree Sprite v3 Finished09 = 129 273 128 90
Life Tree Sprite v3 Finished10 = 258 182 128 90
Life Tree Sprite v3 Finished11 = 258 273 128 90
Life Tree Sprite v3 Finished12 = 387 0 128 90
Life Tree Sprite v3 Finished13 = 387 91 128 90
Life Tree Sprite v3 Finished14 = 516 0 128 90
Life Tree Sprite v3 Finished15 = 387 182 128 90
Life Tree Sprite v3 Finished16 = 516 91 128 90
Life Tree Sprite v3 Finished17 = 387 273 128 90
Life Tree Sprite v3 Finished18 = 516 182 128 90
Life Tree Sprite v3 Finished19 = 516 273 128 90