LOGGER WALK LEFT-Recovered0000 = 0 0 128 128
LOGGER WALK LEFT-Recovered0001 = 129 0 128 128
LOGGER WALK LEFT-Recovered0002 = 258 0 128 128
LOGGER WALK LEFT-Recovered0003 = 0 129 128 128
LOGGER WALK LEFT-Recovered0004 = 129 129 128 128
LOGGER WALK LEFT-Recovered0005 = 0 258 128 128
LOGGER WALK LEFT-Recovered0006 = 129 258 128 128
LOGGER WALK LEFT-Recovered0007 = 258 129 128 128
LOGGER WALK LEFT-Recovered0008 = 258 258 128 128
LOGGER WALK LEFT-Recovered0009 = 387 0 128 128
LOGGER WALK LEFT-Recovered0010 = 387 129 128 128
LOGGER WALK LEFT-Recovered0011 = 516 0 128 128
LOGGER WALK LEFT-Recovered0012 = 387 258 128 128
LOGGER WALK LEFT-Recovered0013 = 516 129 128 128