Logger walk ass1280000 = 0 0 128 128
Logger walk ass1280001 = 129 0 128 128
Logger walk ass1280002 = 258 0 128 128
Logger walk ass1280003 = 0 129 128 128
Logger walk ass1280004 = 129 129 128 128
Logger walk ass1280005 = 0 258 128 128
Logger walk ass1280006 = 129 258 128 128
Logger walk ass1280007 = 258 129 128 128
Logger walk ass1280008 = 258 258 128 128