Logger Ass Attack1280000 = 0 0 128 128
Logger Ass Attack1280001 = 129 0 128 128
Logger Ass Attack1280002 = 258 0 128 128
Logger Ass Attack1280003 = 0 129 128 128
Logger Ass Attack1280004 = 129 129 128 128
Logger Ass Attack1280005 = 0 258 128 128
Logger Ass Attack1280006 = 129 258 128 128
Logger Ass Attack1280007 = 258 129 128 128