Warden Attack Left00 = 0 0 64 64
Warden Attack Left01 = 65 0 64 64
Warden Attack Left02 = 130 0 64 64
Warden Attack Left03 = 0 65 64 64
Warden Attack Left04 = 65 65 64 64
Warden Attack Left05 = 130 65 64 64