GREEN_Timer00 = 0 0 160 128
GREEN_Timer01 = 161 0 160 128
GREEN_Timer02 = 322 0 160 128
GREEN_Timer03 = 0 129 160 128
GREEN_Timer04 = 0 258 160 128
GREEN_Timer05 = 161 129 160 128
GREEN_Timer06 = 161 258 160 128
GREEN_Timer07 = 322 129 160 128
GREEN_Timer08 = 322 258 160 128
GREEN_Timer09 = 483 0 160 128
GREEN_Timer10 = 483 129 160 128
