Archer Attack Animation0000 = 0 0 64 64
Archer Attack Animation0001 = 66 0 64 64
Archer Attack Animation0002 = 132 0 64 64
Archer Attack Animation0003 = 0 66 64 64
Archer Attack Animation0004 = 66 66 64 64
Archer Attack Animation0005 = 0 132 64 64
Archer Attack Animation0006 = 66 132 64 64
Archer Attack Animation0007 = 132 66 64 64