Archer Walking Animations (All Directions)0000 = 0 0 64 64
Archer Walking Animations (All Directions)0001 = 66 0 64 64
Archer Walking Animations (All Directions)0002 = 132 0 64 64
Archer Walking Animations (All Directions)0003 = 0 66 64 64
Archer Walking Animations (All Directions)0004 = 66 66 64 64
Archer Walking Animations (All Directions)0005 = 132 66 64 64